1	53	0	5	1	N	1
2	53	0	5	2	N	1
3	53	0	5	3	N	1
4	53	0	5	4	N	1
5	51	0	3	1	N	1
6	51	0	3	2	N	1
7	51	0	3	3	N	1
8	51	0	3	4	N	1
9	50	0	2	1	N	1
10	50	0	2	2	N	1
11	50	0	2	3	N	1
12	50	0	2	4	N	1
13	52	0	1	1	N	1
14	52	0	1	2	N	1
15	52	0	1	3	N	1
16	52	0	1	4	N	1
17	49	0	4	1	N	1
18	49	0	4	2	N	1
19	49	0	4	3	N	1
20	49	0	4	4	N	1
21	244	0	7	10	N	2
