1	2	JR04-06-0001	1	1	1
2	2	INV04-06-0001	2	2	1
3	2	CM04-06-0001	3	3	1
4	2	10001	4	4	1
5	2	VP04-06-0001	5	5	1
6	2	2248002	6	6	1
7	2	DM04-06-0001	7	7	1
8	2	CA04-06-0001	8	8	1
9	2	FT04-06-0001	9	9	1
10	2	IA04-06-0001	10	10	1
11	2	BUA04-06-0001	11	11	1
12	2	OVH04-06-0001	12	12	1
13	2	BOR04-06-0001	13	13	1
14	2	SI04-06-0001	14	14	1
15	2	ATR04-06-0001	15	15	1
16	2	STR04-06-0001	16	16	1
17	2	PO04-06-0001	17	17	1
18	2	RI04-06-0001	18	18	1
19	2	SO04-06-0001	19	19	1
20	2	BSTO04-06-0001	20	20	1
21	2	BSTI04-06-0001	21	21	1
22	2	PR04-06-0001	22	22	1
23	0	JV0002	23	23	2
24	0	BL0003	24	24	2
25	0	CM0001	25	25	2
26	0	OR0002	26	26	2
27	0	AP0002	27	27	2
28	0	CV0001	28	28	2
29	0	DM0001	29	29	2
30	0	CA0003	30	30	2
31	0	FT0001	31	31	2
32	0	IA0007	32	32	2
33	0	BUA0001	33	33	2
34	0	OVH0001	34	34	2
35	0	BOR0001	35	35	2
36	0	SI0001	36	36	2
37	0	ATR0001	37	37	2
38	0	PO0001	38	38	2
39	0	RI0001	39	39	2
40	0	STR0001	40	40	2
41	0	SO0001	41	41	2
42	0	PR0001	42	42	2
43	0	BSTO0001	43	43	2
44	0	BSTI0001	44	44	2
