3	1	RECEIVABLE	1	770112	1	0	183	1	\N	\N	2
4	2	REVENUE	0	770112	1	0	183	1	\N	\N	2
7	1	RECEIVABLE	1	774454	1	0	183	2	\N	\N	2
8	2	REVENUE	0	774454	1	0	183	2	\N	\N	2
9	1	CASH	1	500454	1	0	181	\N	1	\N	2
10	2	RECEIVABLE	0	500454	1	0	183	\N	1	1	2
