1	1011-1-1	Petty Cash Fund-None-None	ASSET	2000-01-01 00:00:00	2099-01-01 00:00:00	1011	1	1	\N	\N	\N	\N	\N	\N	\N	1	\N	1
2	1016-1-1	BPI-Cash in Bank (0091-0641-03)-None-None	ASSET	2000-01-01 00:00:00	2099-01-01 00:00:00	1016	1	1	\N	\N	\N	\N	\N	\N	\N	1	\N	1
3	1021-1-1	A/R IT Services-None-None	ASSET	2000-01-01 00:00:00	2099-01-01 00:00:00	1021	1	1	\N	\N	\N	\N	\N	\N	\N	1	\N	1
4	1026-1-1	A/R Products-None-None	ASSET	2000-01-01 00:00:00	2099-01-01 00:00:00	1026	1	1	\N	\N	\N	\N	\N	\N	\N	1	\N	1
5	1031-1-1	A/R Soft Dev-None-None	ASSET	2000-01-01 00:00:00	2099-01-01 00:00:00	1031	1	1	\N	\N	\N	\N	\N	\N	\N	1	\N	1
6	1036-1-1	A/R Project Development-None-None	ASSET	2000-01-01 00:00:00	2099-01-01 00:00:00	1036	1	1	\N	\N	\N	\N	\N	\N	\N	1	\N	1
7	1041-1-1	Advances to affiliates-None-None	ASSET	2000-01-01 00:00:00	2099-01-01 00:00:00	1041	1	1	\N	\N	\N	\N	\N	\N	\N	1	\N	1
8	1046-1-1	Advances to officers and employees-None-None	ASSET	2000-01-01 00:00:00	2099-01-01 00:00:00	1046	1	1	\N	\N	\N	\N	\N	\N	\N	1	\N	1
9	1051-1-1	Advances to suppliers-None-None	ASSET	2000-01-01 00:00:00	2099-01-01 00:00:00	1051	1	1	\N	\N	\N	\N	\N	\N	\N	1	\N	1
10	1056-1-1	Subscription Receivables-None-None	ASSET	2000-01-01 00:00:00	2099-01-01 00:00:00	1056	1	1	\N	\N	\N	\N	\N	\N	\N	1	\N	1
11	1061-1-1	Creditable EWT-None-None	ASSET	2000-01-01 00:00:00	2099-01-01 00:00:00	1061	1	1	\N	\N	\N	\N	\N	\N	\N	1	\N	1
12	1066-1-1	Accounts Receivable - Employees-None-None	ASSET	2000-01-01 00:00:00	2099-01-01 00:00:00	1066	1	1	\N	\N	\N	\N	\N	\N	\N	1	\N	1
13	1071-1-1	Accounts Receivable-others-None-None	ASSET	2000-01-01 00:00:00	2099-01-01 00:00:00	1071	1	1	\N	\N	\N	\N	\N	\N	\N	1	\N	1
14	1076-1-1	SSS claims receivable-None-None	ASSET	2000-01-01 00:00:00	2099-01-01 00:00:00	1076	1	1	\N	\N	\N	\N	\N	\N	\N	1	\N	1
15	1081-1-1	Inventories on Hand-None-None	ASSET	2000-01-01 00:00:00	2099-01-01 00:00:00	1081	1	1	\N	\N	\N	\N	\N	\N	\N	1	\N	1
16	1086-1-1	Prepaid Insurance-None-None	ASSET	2000-01-01 00:00:00	2099-01-01 00:00:00	1086	1	1	\N	\N	\N	\N	\N	\N	\N	1	\N	1
17	1091-1-1	Prepaid taxes & licenses-None-None	ASSET	2000-01-01 00:00:00	2099-01-01 00:00:00	1091	1	1	\N	\N	\N	\N	\N	\N	\N	1	\N	1
18	1096-1-1	Input tax-None-None	ASSET	2000-01-01 00:00:00	2099-01-01 00:00:00	1096	1	1	\N	\N	\N	\N	\N	\N	\N	1	\N	1
19	1111-1-1	Manufacturing tools-None-None	ASSET	2000-01-01 00:00:00	2099-01-01 00:00:00	1111	1	1	\N	\N	\N	\N	\N	\N	\N	1	\N	1
20	1116-1-1	Office Equipment-None-None	ASSET	2000-01-01 00:00:00	2099-01-01 00:00:00	1116	1	1	\N	\N	\N	\N	\N	\N	\N	1	\N	1
21	1121-1-1	Office furniture & fixture-None-None	ASSET	2000-01-01 00:00:00	2099-01-01 00:00:00	1121	1	1	\N	\N	\N	\N	\N	\N	\N	1	\N	1
22	1126-1-1	Accumulated depreciation - Office Equipment-None-None	ASSET	2000-01-01 00:00:00	2099-01-01 00:00:00	1126	1	1	\N	\N	\N	\N	\N	\N	\N	1	\N	1
23	1131-1-1	Accumulated depreciation - Office furn. & fixt-None-None	ASSET	2000-01-01 00:00:00	2099-01-01 00:00:00	1131	1	1	\N	\N	\N	\N	\N	\N	\N	1	\N	1
24	1136-1-1	Accumulated depreciation - service cars-None-None	ASSET	2000-01-01 00:00:00	2099-01-01 00:00:00	1136	1	1	\N	\N	\N	\N	\N	\N	\N	1	\N	1
25	1141-1-1	Other service cost-None-None	ASSET	2000-01-01 00:00:00	2099-01-01 00:00:00	1141	1	1	\N	\N	\N	\N	\N	\N	\N	1	\N	1
26	1146-1-1	Software development costs-None-None	ASSET	2000-01-01 00:00:00	2099-01-01 00:00:00	1146	1	1	\N	\N	\N	\N	\N	\N	\N	1	\N	1
27	2011-1-1	AP-Trade Clearing Account-None-None	LIABILITY	2000-01-01 00:00:00	2099-01-01 00:00:00	2011	1	1	\N	\N	\N	\N	\N	\N	\N	1	\N	1
28	2016-1-1	AP-Non trade Clearing Account-None-None	LIABILITY	2000-01-01 00:00:00	2099-01-01 00:00:00	2016	1	1	\N	\N	\N	\N	\N	\N	\N	1	\N	1
29	2021-1-1	Accounts payable - Others-None-None	LIABILITY	2000-01-01 00:00:00	2099-01-01 00:00:00	2021	1	1	\N	\N	\N	\N	\N	\N	\N	1	\N	1
30	2026-1-1	Withholding tax payable -expanded-None-None	LIABILITY	2000-01-01 00:00:00	2099-01-01 00:00:00	2026	1	1	\N	\N	\N	\N	\N	\N	\N	1	\N	1
31	2031-1-1	Withholding tax payable -salaries-None-None	LIABILITY	2000-01-01 00:00:00	2099-01-01 00:00:00	2031	1	1	\N	\N	\N	\N	\N	\N	\N	1	\N	1
32	2036-1-1	Output VAT Payable-None-None	LIABILITY	2000-01-01 00:00:00	2099-01-01 00:00:00	2036	1	1	\N	\N	\N	\N	\N	\N	\N	1	\N	1
33	2041-1-1	SSS premium payable-None-None	LIABILITY	2000-01-01 00:00:00	2099-01-01 00:00:00	2041	1	1	\N	\N	\N	\N	\N	\N	\N	1	\N	1
34	2046-1-1	SSS loan payable-None-None	LIABILITY	2000-01-01 00:00:00	2099-01-01 00:00:00	2046	1	1	\N	\N	\N	\N	\N	\N	\N	1	\N	1
35	2051-1-1	Pag-ibig fund payable-None-None	LIABILITY	2000-01-01 00:00:00	2099-01-01 00:00:00	2051	1	1	\N	\N	\N	\N	\N	\N	\N	1	\N	1
36	2056-1-1	Medicare/ECC contribution payable-None-None	LIABILITY	2000-01-01 00:00:00	2099-01-01 00:00:00	2056	1	1	\N	\N	\N	\N	\N	\N	\N	1	\N	1
37	2061-1-1	Coop loan payable-None-None	LIABILITY	2000-01-01 00:00:00	2099-01-01 00:00:00	2061	1	1	\N	\N	\N	\N	\N	\N	\N	1	\N	1
38	2066-1-1	Accrued Other staff-None-None	LIABILITY	2000-01-01 00:00:00	2099-01-01 00:00:00	2066	1	1	\N	\N	\N	\N	\N	\N	\N	1	\N	1
39	2071-1-1	Accrued insurance-None-None	LIABILITY	2000-01-01 00:00:00	2099-01-01 00:00:00	2071	1	1	\N	\N	\N	\N	\N	\N	\N	1	\N	1
40	2076-1-1	Accrued rental-None-None	LIABILITY	2000-01-01 00:00:00	2099-01-01 00:00:00	2076	1	1	\N	\N	\N	\N	\N	\N	\N	1	\N	1
41	2081-1-1	Accrued accessories inv. charges-None-None	LIABILITY	2000-01-01 00:00:00	2099-01-01 00:00:00	2081	1	1	\N	\N	\N	\N	\N	\N	\N	1	\N	1
42	2086-1-1	Accrued taxes-None-None	LIABILITY	2000-01-01 00:00:00	2099-01-01 00:00:00	2086	1	1	\N	\N	\N	\N	\N	\N	\N	1	\N	1
43	2091-1-1	Accrued other general admin-None-None	LIABILITY	2000-01-01 00:00:00	2099-01-01 00:00:00	2091	1	1	\N	\N	\N	\N	\N	\N	\N	1	\N	1
44	2096-1-1	Accrued other utilities-None-None	LIABILITY	2000-01-01 00:00:00	2099-01-01 00:00:00	2096	1	1	\N	\N	\N	\N	\N	\N	\N	1	\N	1
45	2111-1-1	Advances from affiliates-None-None	LIABILITY	2000-01-01 00:00:00	2099-01-01 00:00:00	2111	1	1	\N	\N	\N	\N	\N	\N	\N	1	\N	1
46	2116-1-1	Customers deposit-None-None	LIABILITY	2000-01-01 00:00:00	2099-01-01 00:00:00	2116	1	1	\N	\N	\N	\N	\N	\N	\N	1	\N	1
47	3011-1-1	Capital Stock-None-None	OWNERS EQUITY	2000-01-01 00:00:00	2099-01-01 00:00:00	3011	1	1	\N	\N	\N	\N	\N	\N	\N	1	\N	1
48	3016-1-1	Retained Earnings-None-None	OWNERS EQUITY	2000-01-01 00:00:00	2099-01-01 00:00:00	3016	1	1	\N	\N	\N	\N	\N	\N	\N	1	\N	1
49	4011-3-1	Sales-Software Development-None	REVENUE	2000-01-01 00:00:00	2099-01-01 00:00:00	4011	3	1	\N	\N	\N	\N	\N	\N	\N	1	\N	1
50	4011-4-1	Sales-Project Management-None	REVENUE	2000-01-01 00:00:00	2099-01-01 00:00:00	4011	4	1	\N	\N	\N	\N	\N	\N	\N	1	\N	1
51	4011-5-1	Sales-Products-None	REVENUE	2000-01-01 00:00:00	2099-01-01 00:00:00	4011	5	1	\N	\N	\N	\N	\N	\N	\N	1	\N	1
52	4016-2-1	Service Income-Service-None	REVENUE	2000-01-01 00:00:00	2099-01-01 00:00:00	4016	2	1	\N	\N	\N	\N	\N	\N	\N	1	\N	1
53	4021-2-1	Facilities Income-Service-None	REVENUE	2000-01-01 00:00:00	2099-01-01 00:00:00	4021	2	1	\N	\N	\N	\N	\N	\N	\N	1	\N	1
54	5011-5-1	Cost of sales-Products-None	EXPENSE	2000-01-01 00:00:00	2099-01-01 00:00:00	5011	5	1	\N	\N	\N	\N	\N	\N	\N	1	\N	1
55	6011-1-11	Salaries & wages-None-Admin	EXPENSE	2000-01-01 00:00:00	2099-01-01 00:00:00	6011	1	11	\N	\N	\N	\N	\N	\N	\N	1	\N	1
56	6011-1-13	Salaries & wages-None-Service	EXPENSE	2000-01-01 00:00:00	2099-01-01 00:00:00	6011	1	13	\N	\N	\N	\N	\N	\N	\N	1	\N	1
57	6011-1-16	Salaries & wages-None-Software Development	EXPENSE	2000-01-01 00:00:00	2099-01-01 00:00:00	6011	1	16	\N	\N	\N	\N	\N	\N	\N	1	\N	1
58	6011-1-19	Salaries & wages-None-Project Management	EXPENSE	2000-01-01 00:00:00	2099-01-01 00:00:00	6011	1	19	\N	\N	\N	\N	\N	\N	\N	1	\N	1
59	6016-1-11	Overtime pay-None-Admin	EXPENSE	2000-01-01 00:00:00	2099-01-01 00:00:00	6016	1	11	\N	\N	\N	\N	\N	\N	\N	1	\N	1
60	6016-1-13	Overtime pay-None-Service	EXPENSE	2000-01-01 00:00:00	2099-01-01 00:00:00	6016	1	13	\N	\N	\N	\N	\N	\N	\N	1	\N	1
61	6016-1-16	Overtime pay-None-Software Development	EXPENSE	2000-01-01 00:00:00	2099-01-01 00:00:00	6016	1	16	\N	\N	\N	\N	\N	\N	\N	1	\N	1
62	6016-1-19	Overtime pay-None-Project Management	EXPENSE	2000-01-01 00:00:00	2099-01-01 00:00:00	6016	1	19	\N	\N	\N	\N	\N	\N	\N	1	\N	1
63	6021-1-11	13th month & bonuses-None-Admin	EXPENSE	2000-01-01 00:00:00	2099-01-01 00:00:00	6021	1	11	\N	\N	\N	\N	\N	\N	\N	1	\N	1
64	6021-1-13	13th month & bonuses-None-Service	EXPENSE	2000-01-01 00:00:00	2099-01-01 00:00:00	6021	1	13	\N	\N	\N	\N	\N	\N	\N	1	\N	1
65	6021-1-16	13th month & bonuses-None-Software Development	EXPENSE	2000-01-01 00:00:00	2099-01-01 00:00:00	6021	1	16	\N	\N	\N	\N	\N	\N	\N	1	\N	1
66	6021-1-19	13th month & bonuses-None-Project Management	EXPENSE	2000-01-01 00:00:00	2099-01-01 00:00:00	6021	1	19	\N	\N	\N	\N	\N	\N	\N	1	\N	1
67	6026-1-11	SSS premium contribution-None-Admin	EXPENSE	2000-01-01 00:00:00	2099-01-01 00:00:00	6026	1	11	\N	\N	\N	\N	\N	\N	\N	1	\N	1
68	6026-1-13	SSS premium contribution-None-Service	EXPENSE	2000-01-01 00:00:00	2099-01-01 00:00:00	6026	1	13	\N	\N	\N	\N	\N	\N	\N	1	\N	1
69	6026-1-16	SSS premium contribution-None-Software Development	EXPENSE	2000-01-01 00:00:00	2099-01-01 00:00:00	6026	1	16	\N	\N	\N	\N	\N	\N	\N	1	\N	1
70	6026-1-19	SSS premium contribution-None-Project Management	EXPENSE	2000-01-01 00:00:00	2099-01-01 00:00:00	6026	1	19	\N	\N	\N	\N	\N	\N	\N	1	\N	1
71	6031-1-11	Medicare premium contribution-None-Admin	EXPENSE	2000-01-01 00:00:00	2099-01-01 00:00:00	6031	1	11	\N	\N	\N	\N	\N	\N	\N	1	\N	1
72	6031-1-13	Medicare premium contribution-None-Service	EXPENSE	2000-01-01 00:00:00	2099-01-01 00:00:00	6031	1	13	\N	\N	\N	\N	\N	\N	\N	1	\N	1
73	6031-1-16	Medicare premium contribution-None-Software Development	EXPENSE	2000-01-01 00:00:00	2099-01-01 00:00:00	6031	1	16	\N	\N	\N	\N	\N	\N	\N	1	\N	1
74	6031-1-19	Medicare premium contribution-None-Project Management	EXPENSE	2000-01-01 00:00:00	2099-01-01 00:00:00	6031	1	19	\N	\N	\N	\N	\N	\N	\N	1	\N	1
75	6036-1-11	ECC contribution-None-Admin	EXPENSE	2000-01-01 00:00:00	2099-01-01 00:00:00	6036	1	11	\N	\N	\N	\N	\N	\N	\N	1	\N	1
76	6036-1-13	ECC contribution-None-Service	EXPENSE	2000-01-01 00:00:00	2099-01-01 00:00:00	6036	1	13	\N	\N	\N	\N	\N	\N	\N	1	\N	1
77	6036-1-16	ECC contribution-None-Software Development	EXPENSE	2000-01-01 00:00:00	2099-01-01 00:00:00	6036	1	16	\N	\N	\N	\N	\N	\N	\N	1	\N	1
78	6036-1-19	ECC contribution-None-Project Management	EXPENSE	2000-01-01 00:00:00	2099-01-01 00:00:00	6036	1	19	\N	\N	\N	\N	\N	\N	\N	1	\N	1
79	6041-1-11	HDMF contribution-None-Admin	EXPENSE	2000-01-01 00:00:00	2099-01-01 00:00:00	6041	1	11	\N	\N	\N	\N	\N	\N	\N	1	\N	1
80	6041-1-13	HDMF contribution-None-Service	EXPENSE	2000-01-01 00:00:00	2099-01-01 00:00:00	6041	1	13	\N	\N	\N	\N	\N	\N	\N	1	\N	1
81	6041-1-16	HDMF contribution-None-Software Development	EXPENSE	2000-01-01 00:00:00	2099-01-01 00:00:00	6041	1	16	\N	\N	\N	\N	\N	\N	\N	1	\N	1
82	6041-1-19	HDMF contribution-None-Project Management	EXPENSE	2000-01-01 00:00:00	2099-01-01 00:00:00	6041	1	19	\N	\N	\N	\N	\N	\N	\N	1	\N	1
83	6046-1-11	Employee Benefits-None-Admin	EXPENSE	2000-01-01 00:00:00	2099-01-01 00:00:00	6046	1	11	\N	\N	\N	\N	\N	\N	\N	1	\N	1
84	6046-1-13	Employee Benefits-None-Service	EXPENSE	2000-01-01 00:00:00	2099-01-01 00:00:00	6046	1	13	\N	\N	\N	\N	\N	\N	\N	1	\N	1
85	6046-1-16	Employee Benefits-None-Software Development	EXPENSE	2000-01-01 00:00:00	2099-01-01 00:00:00	6046	1	16	\N	\N	\N	\N	\N	\N	\N	1	\N	1
86	6046-1-19	Employee Benefits-None-Project Management	EXPENSE	2000-01-01 00:00:00	2099-01-01 00:00:00	6046	1	19	\N	\N	\N	\N	\N	\N	\N	1	\N	1
87	6051-1-11	Vacation and sick leave-None-Admin	EXPENSE	2000-01-01 00:00:00	2099-01-01 00:00:00	6051	1	11	\N	\N	\N	\N	\N	\N	\N	1	\N	1
88	6051-1-13	Vacation and sick leave-None-Service	EXPENSE	2000-01-01 00:00:00	2099-01-01 00:00:00	6051	1	13	\N	\N	\N	\N	\N	\N	\N	1	\N	1
89	6056-1-11	Meal allowances-None-Admin	EXPENSE	2000-01-01 00:00:00	2099-01-01 00:00:00	6056	1	11	\N	\N	\N	\N	\N	\N	\N	1	\N	1
90	6056-1-13	Meal allowances-None-Service	EXPENSE	2000-01-01 00:00:00	2099-01-01 00:00:00	6056	1	13	\N	\N	\N	\N	\N	\N	\N	1	\N	1
91	6056-1-16	Meal allowances-None-Software Development	EXPENSE	2000-01-01 00:00:00	2099-01-01 00:00:00	6056	1	16	\N	\N	\N	\N	\N	\N	\N	1	\N	1
92	6056-1-19	Meal allowances-None-Project Management	EXPENSE	2000-01-01 00:00:00	2099-01-01 00:00:00	6056	1	19	\N	\N	\N	\N	\N	\N	\N	1	\N	1
93	6061-1-11	Representation allowance-None-Admin	EXPENSE	2000-01-01 00:00:00	2099-01-01 00:00:00	6061	1	11	\N	\N	\N	\N	\N	\N	\N	1	\N	1
94	6061-1-19	Representation allowance-None-Project Management	EXPENSE	2000-01-01 00:00:00	2099-01-01 00:00:00	6061	1	19	\N	\N	\N	\N	\N	\N	\N	1	\N	1
95	6066-1-11	Other related costs-None-Admin	EXPENSE	2000-01-01 00:00:00	2099-01-01 00:00:00	6066	1	11	\N	\N	\N	\N	\N	\N	\N	1	\N	1
96	6066-1-13	Other related costs-None-Service	EXPENSE	2000-01-01 00:00:00	2099-01-01 00:00:00	6066	1	13	\N	\N	\N	\N	\N	\N	\N	1	\N	1
97	6066-1-16	Other related costs-None-Software Development	EXPENSE	2000-01-01 00:00:00	2099-01-01 00:00:00	6066	1	16	\N	\N	\N	\N	\N	\N	\N	1	\N	1
98	6066-1-19	Other related costs-None-Project Management	EXPENSE	2000-01-01 00:00:00	2099-01-01 00:00:00	6066	1	19	\N	\N	\N	\N	\N	\N	\N	1	\N	1
99	6071-1-11	Depreciation expense - Furniture & fixture-None-Admin	EXPENSE	2000-01-01 00:00:00	2099-01-01 00:00:00	6071	1	11	\N	\N	\N	\N	\N	\N	\N	1	\N	1
100	6076-1-11	Depreciation expense - Office Equipment-None-Admin	EXPENSE	2000-01-01 00:00:00	2099-01-01 00:00:00	6076	1	11	\N	\N	\N	\N	\N	\N	\N	1	\N	1
101	6076-1-16	Depreciation expense - Office Equipment-None-Software Development	EXPENSE	2000-01-01 00:00:00	2099-01-01 00:00:00	6076	1	16	\N	\N	\N	\N	\N	\N	\N	1	\N	1
102	6076-1-19	Depreciation expense - Office Equipment-None-Project Management	EXPENSE	2000-01-01 00:00:00	2099-01-01 00:00:00	6076	1	19	\N	\N	\N	\N	\N	\N	\N	1	\N	1
103	6086-1-11	Rental expense-None-Admin	EXPENSE	2000-01-01 00:00:00	2099-01-01 00:00:00	6086	1	11	\N	\N	\N	\N	\N	\N	\N	1	\N	1
104	6086-1-13	Rental expense-None-Service	EXPENSE	2000-01-01 00:00:00	2099-01-01 00:00:00	6086	1	13	\N	\N	\N	\N	\N	\N	\N	1	\N	1
105	6086-1-16	Rental expense-None-Software Development	EXPENSE	2000-01-01 00:00:00	2099-01-01 00:00:00	6086	1	16	\N	\N	\N	\N	\N	\N	\N	1	\N	1
106	6086-1-19	Rental expense-None-Project Management	EXPENSE	2000-01-01 00:00:00	2099-01-01 00:00:00	6086	1	19	\N	\N	\N	\N	\N	\N	\N	1	\N	1
107	6091-1-11	Property insurance-None-Admin	EXPENSE	2000-01-01 00:00:00	2099-01-01 00:00:00	6091	1	11	\N	\N	\N	\N	\N	\N	\N	1	\N	1
108	6091-1-13	Property insurance-None-Service	EXPENSE	2000-01-01 00:00:00	2099-01-01 00:00:00	6091	1	13	\N	\N	\N	\N	\N	\N	\N	1	\N	1
109	6091-1-16	Property insurance-None-Software Development	EXPENSE	2000-01-01 00:00:00	2099-01-01 00:00:00	6091	1	16	\N	\N	\N	\N	\N	\N	\N	1	\N	1
110	6091-1-19	Property insurance-None-Project Management	EXPENSE	2000-01-01 00:00:00	2099-01-01 00:00:00	6091	1	19	\N	\N	\N	\N	\N	\N	\N	1	\N	1
111	6111-1-11	Security services-None-Admin	EXPENSE	2000-01-01 00:00:00	2099-01-01 00:00:00	6111	1	11	\N	\N	\N	\N	\N	\N	\N	1	\N	1
112	6111-1-13	Security services-None-Service	EXPENSE	2000-01-01 00:00:00	2099-01-01 00:00:00	6111	1	13	\N	\N	\N	\N	\N	\N	\N	1	\N	1
113	6111-1-16	Security services-None-Software Development	EXPENSE	2000-01-01 00:00:00	2099-01-01 00:00:00	6111	1	16	\N	\N	\N	\N	\N	\N	\N	1	\N	1
114	6111-1-19	Security services-None-Project Management	EXPENSE	2000-01-01 00:00:00	2099-01-01 00:00:00	6111	1	19	\N	\N	\N	\N	\N	\N	\N	1	\N	1
115	6116-1-11	Janitorial services-None-Admin	EXPENSE	2000-01-01 00:00:00	2099-01-01 00:00:00	6116	1	11	\N	\N	\N	\N	\N	\N	\N	1	\N	1
116	6116-1-13	Janitorial services-None-Service	EXPENSE	2000-01-01 00:00:00	2099-01-01 00:00:00	6116	1	13	\N	\N	\N	\N	\N	\N	\N	1	\N	1
117	6116-1-16	Janitorial services-None-Software Development	EXPENSE	2000-01-01 00:00:00	2099-01-01 00:00:00	6116	1	16	\N	\N	\N	\N	\N	\N	\N	1	\N	1
118	6116-1-19	Janitorial services-None-Project Management	EXPENSE	2000-01-01 00:00:00	2099-01-01 00:00:00	6116	1	19	\N	\N	\N	\N	\N	\N	\N	1	\N	1
119	6121-1-11	Communication-None-Admin	EXPENSE	2000-01-01 00:00:00	2099-01-01 00:00:00	6121	1	11	\N	\N	\N	\N	\N	\N	\N	1	\N	1
120	6121-1-13	Communication-None-Service	EXPENSE	2000-01-01 00:00:00	2099-01-01 00:00:00	6121	1	13	\N	\N	\N	\N	\N	\N	\N	1	\N	1
121	6121-1-16	Communication-None-Software Development	EXPENSE	2000-01-01 00:00:00	2099-01-01 00:00:00	6121	1	16	\N	\N	\N	\N	\N	\N	\N	1	\N	1
122	6121-1-19	Communication-None-Project Management	EXPENSE	2000-01-01 00:00:00	2099-01-01 00:00:00	6121	1	19	\N	\N	\N	\N	\N	\N	\N	1	\N	1
123	6126-1-11	Light & water-None-Admin	EXPENSE	2000-01-01 00:00:00	2099-01-01 00:00:00	6126	1	11	\N	\N	\N	\N	\N	\N	\N	1	\N	1
124	6126-1-13	Light & water-None-Service	EXPENSE	2000-01-01 00:00:00	2099-01-01 00:00:00	6126	1	13	\N	\N	\N	\N	\N	\N	\N	1	\N	1
125	6126-1-16	Light & water-None-Software Development	EXPENSE	2000-01-01 00:00:00	2099-01-01 00:00:00	6126	1	16	\N	\N	\N	\N	\N	\N	\N	1	\N	1
126	6126-1-19	Light & water-None-Project Management	EXPENSE	2000-01-01 00:00:00	2099-01-01 00:00:00	6126	1	19	\N	\N	\N	\N	\N	\N	\N	1	\N	1
127	6131-1-11	Other utility expense-None-Admin	EXPENSE	2000-01-01 00:00:00	2099-01-01 00:00:00	6131	1	11	\N	\N	\N	\N	\N	\N	\N	1	\N	1
128	6131-1-13	Other utility expense-None-Service	EXPENSE	2000-01-01 00:00:00	2099-01-01 00:00:00	6131	1	13	\N	\N	\N	\N	\N	\N	\N	1	\N	1
129	6131-1-16	Other utility expense-None-Software Development	EXPENSE	2000-01-01 00:00:00	2099-01-01 00:00:00	6131	1	16	\N	\N	\N	\N	\N	\N	\N	1	\N	1
130	6131-1-19	Other utility expense-None-Project Management	EXPENSE	2000-01-01 00:00:00	2099-01-01 00:00:00	6131	1	19	\N	\N	\N	\N	\N	\N	\N	1	\N	1
131	6136-1-11	Insurance expense-None-Admin	EXPENSE	2000-01-01 00:00:00	2099-01-01 00:00:00	6136	1	11	\N	\N	\N	\N	\N	\N	\N	1	\N	1
132	6136-1-13	Insurance expense-None-Service	EXPENSE	2000-01-01 00:00:00	2099-01-01 00:00:00	6136	1	13	\N	\N	\N	\N	\N	\N	\N	1	\N	1
133	6136-1-16	Insurance expense-None-Software Development	EXPENSE	2000-01-01 00:00:00	2099-01-01 00:00:00	6136	1	16	\N	\N	\N	\N	\N	\N	\N	1	\N	1
134	6136-1-19	Insurance expense-None-Project Management	EXPENSE	2000-01-01 00:00:00	2099-01-01 00:00:00	6136	1	19	\N	\N	\N	\N	\N	\N	\N	1	\N	1
135	6141-1-11	Internet and other related cost-None-Admin	EXPENSE	2000-01-01 00:00:00	2099-01-01 00:00:00	6141	1	11	\N	\N	\N	\N	\N	\N	\N	1	\N	1
136	6141-1-13	Internet and other related cost-None-Service	EXPENSE	2000-01-01 00:00:00	2099-01-01 00:00:00	6141	1	13	\N	\N	\N	\N	\N	\N	\N	1	\N	1
137	6141-1-16	Internet and other related cost-None-Software Development	EXPENSE	2000-01-01 00:00:00	2099-01-01 00:00:00	6141	1	16	\N	\N	\N	\N	\N	\N	\N	1	\N	1
138	6141-1-19	Internet and other related cost-None-Project Management	EXPENSE	2000-01-01 00:00:00	2099-01-01 00:00:00	6141	1	19	\N	\N	\N	\N	\N	\N	\N	1	\N	1
139	6146-1-13	Other selling expenses-None-Service	EXPENSE	2000-01-01 00:00:00	2099-01-01 00:00:00	6146	1	13	\N	\N	\N	\N	\N	\N	\N	1	\N	1
140	6146-1-16	Other selling expenses-None-Software Development	EXPENSE	2000-01-01 00:00:00	2099-01-01 00:00:00	6146	1	16	\N	\N	\N	\N	\N	\N	\N	1	\N	1
141	6146-1-19	Other selling expenses-None-Project Management	EXPENSE	2000-01-01 00:00:00	2099-01-01 00:00:00	6146	1	19	\N	\N	\N	\N	\N	\N	\N	1	\N	1
142	6151-1-11	Professional & legal fees-None-Admin	EXPENSE	2000-01-01 00:00:00	2099-01-01 00:00:00	6151	1	11	\N	\N	\N	\N	\N	\N	\N	1	\N	1
143	6151-1-16	Professional & legal fees-None-Software Development	EXPENSE	2000-01-01 00:00:00	2099-01-01 00:00:00	6151	1	16	\N	\N	\N	\N	\N	\N	\N	1	\N	1
144	6151-1-19	Professional & legal fees-None-Project Management	EXPENSE	2000-01-01 00:00:00	2099-01-01 00:00:00	6151	1	19	\N	\N	\N	\N	\N	\N	\N	1	\N	1
145	6156-1-11	Representation & entertainment-None-Admin	EXPENSE	2000-01-01 00:00:00	2099-01-01 00:00:00	6156	1	11	\N	\N	\N	\N	\N	\N	\N	1	\N	1
146	6156-1-13	Representation & entertainment-None-Service	EXPENSE	2000-01-01 00:00:00	2099-01-01 00:00:00	6156	1	13	\N	\N	\N	\N	\N	\N	\N	1	\N	1
147	6156-1-16	Representation & entertainment-None-Software Development	EXPENSE	2000-01-01 00:00:00	2099-01-01 00:00:00	6156	1	16	\N	\N	\N	\N	\N	\N	\N	1	\N	1
148	6156-1-19	Representation & entertainment-None-Project Management	EXPENSE	2000-01-01 00:00:00	2099-01-01 00:00:00	6156	1	19	\N	\N	\N	\N	\N	\N	\N	1	\N	1
149	6161-1-11	Transportation & travel-None-Admin	EXPENSE	2000-01-01 00:00:00	2099-01-01 00:00:00	6161	1	11	\N	\N	\N	\N	\N	\N	\N	1	\N	1
150	6161-1-13	Transportation & travel-None-Service	EXPENSE	2000-01-01 00:00:00	2099-01-01 00:00:00	6161	1	13	\N	\N	\N	\N	\N	\N	\N	1	\N	1
151	6161-1-16	Transportation & travel-None-Software Development	EXPENSE	2000-01-01 00:00:00	2099-01-01 00:00:00	6161	1	16	\N	\N	\N	\N	\N	\N	\N	1	\N	1
152	6161-1-19	Transportation & travel-None-Project Management	EXPENSE	2000-01-01 00:00:00	2099-01-01 00:00:00	6161	1	19	\N	\N	\N	\N	\N	\N	\N	1	\N	1
153	6176-1-11	Transportation allowance-None-Admin	EXPENSE	2000-01-01 00:00:00	2099-01-01 00:00:00	6176	1	11	\N	\N	\N	\N	\N	\N	\N	1	\N	1
154	6176-1-13	Transportation allowance-None-Service	EXPENSE	2000-01-01 00:00:00	2099-01-01 00:00:00	6176	1	13	\N	\N	\N	\N	\N	\N	\N	1	\N	1
155	6176-1-16	Transportation allowance-None-Software Development	EXPENSE	2000-01-01 00:00:00	2099-01-01 00:00:00	6176	1	16	\N	\N	\N	\N	\N	\N	\N	1	\N	1
156	6176-1-19	Transportation allowance-None-Project Management	EXPENSE	2000-01-01 00:00:00	2099-01-01 00:00:00	6176	1	19	\N	\N	\N	\N	\N	\N	\N	1	\N	1
157	6181-1-11	Office supplies-None-Admin	EXPENSE	2000-01-01 00:00:00	2099-01-01 00:00:00	6181	1	11	\N	\N	\N	\N	\N	\N	\N	1	\N	1
158	6181-1-13	Office supplies-None-Service	EXPENSE	2000-01-01 00:00:00	2099-01-01 00:00:00	6181	1	13	\N	\N	\N	\N	\N	\N	\N	1	\N	1
159	6181-1-16	Office supplies-None-Software Development	EXPENSE	2000-01-01 00:00:00	2099-01-01 00:00:00	6181	1	16	\N	\N	\N	\N	\N	\N	\N	1	\N	1
160	6181-1-19	Office supplies-None-Project Management	EXPENSE	2000-01-01 00:00:00	2099-01-01 00:00:00	6181	1	19	\N	\N	\N	\N	\N	\N	\N	1	\N	1
161	6186-1-11	Dues & subscription-None-Admin	EXPENSE	2000-01-01 00:00:00	2099-01-01 00:00:00	6186	1	11	\N	\N	\N	\N	\N	\N	\N	1	\N	1
162	6191-1-11	Bank charges-None-Admin	EXPENSE	2000-01-01 00:00:00	2099-01-01 00:00:00	6191	1	11	\N	\N	\N	\N	\N	\N	\N	1	\N	1
163	6196-1-13	Employee Training-None-Service	EXPENSE	2000-01-01 00:00:00	2099-01-01 00:00:00	6196	1	13	\N	\N	\N	\N	\N	\N	\N	1	\N	1
164	6196-1-16	Employee Training-None-Software Development	EXPENSE	2000-01-01 00:00:00	2099-01-01 00:00:00	6196	1	16	\N	\N	\N	\N	\N	\N	\N	1	\N	1
165	6211-1-13	Fuel Oil & Lubricant-None-Service	EXPENSE	2000-01-01 00:00:00	2099-01-01 00:00:00	6211	1	13	\N	\N	\N	\N	\N	\N	\N	1	\N	1
166	6216-1-11	Other general admin. expenses-None-Admin	EXPENSE	2000-01-01 00:00:00	2099-01-01 00:00:00	6216	1	11	\N	\N	\N	\N	\N	\N	\N	1	\N	1
167	6216-1-19	Other general admin. expenses-None-Project Management	EXPENSE	2000-01-01 00:00:00	2099-01-01 00:00:00	6216	1	19	\N	\N	\N	\N	\N	\N	\N	1	\N	1
168	6221-1-11	Seminars meetings & conferences-None-Admin	EXPENSE	2000-01-01 00:00:00	2099-01-01 00:00:00	6221	1	11	\N	\N	\N	\N	\N	\N	\N	1	\N	1
169	6226-1-11	Taxes & licenses-None-Admin	EXPENSE	2000-01-01 00:00:00	2099-01-01 00:00:00	6226	1	11	\N	\N	\N	\N	\N	\N	\N	1	\N	1
170	6231-1-11	Uniforms-None-Admin	EXPENSE	2000-01-01 00:00:00	2099-01-01 00:00:00	6231	1	11	\N	\N	\N	\N	\N	\N	\N	1	\N	1
171	6231-1-13	Uniforms-None-Service	EXPENSE	2000-01-01 00:00:00	2099-01-01 00:00:00	6231	1	13	\N	\N	\N	\N	\N	\N	\N	1	\N	1
172	7011-1-11	Interest income-None-Admin	EXPENSE	2000-01-01 00:00:00	2099-01-01 00:00:00	7011	1	11	\N	\N	\N	\N	\N	\N	\N	1	\N	1
173	7016-1-11	Other income-None-Admin	EXPENSE	2000-01-01 00:00:00	2099-01-01 00:00:00	7016	1	11	\N	\N	\N	\N	\N	\N	\N	1	\N	1
174	7016-1-13	Other income-None-Service	EXPENSE	2000-01-01 00:00:00	2099-01-01 00:00:00	7016	1	13	\N	\N	\N	\N	\N	\N	\N	1	\N	1
175	7016-1-16	Other income-None-Software Development	EXPENSE	2000-01-01 00:00:00	2099-01-01 00:00:00	7016	1	16	\N	\N	\N	\N	\N	\N	\N	1	\N	1
176	7016-1-19	Other income-None-Project Management	EXPENSE	2000-01-01 00:00:00	2099-01-01 00:00:00	7019	1	19	\N	\N	\N	\N	\N	\N	\N	1	\N	1
177	35000-00	Retained Earnings-HQ	OWNERS EQUITY	2000-01-01 00:00:00	\N	35000	00	\\N	\\N	\\N	\\N	\\N	\\N	\\N	\\N	1	\N	2
178	10100-00	Cash On Hand-HQ	ASSET	2000-01-01 00:00:00	\N	10100	00	\N	\N	\N	\N	\N	\N	\N	\N	1	\N	2
179	10110-00	Petty Cash Fund-HQ	ASSET	2000-01-01 00:00:00	\N	10110	00	\N	\N	\N	\N	\N	\N	\N	\N	1	\N	2
180	10120-00	Change Fund-HQ	ASSET	2000-01-01 00:00:00	\N	10120	00	\N	\N	\N	\N	\N	\N	\N	\N	1	\N	2
181	10210-00	Cash in Bank C/A-HQ	ASSET	2000-01-01 00:00:00	\N	10210	00	\N	\N	\N	\N	\N	\N	\N	\N	1	\N	2
182	10220-00	Cash in Bank S/A-HQ	ASSET	2000-01-01 00:00:00	\N	10220	00	\N	\N	\N	\N	\N	\N	\N	\N	1	\N	2
183	11010-00	Accounts Receivable - Customers-HQ	ASSET	2000-01-01 00:00:00	\N	11010	00	\N	\N	\N	\N	\N	\N	\N	\N	1	\N	2
184	11020-00	Accounts Receivable - Credit Cards-HQ	ASSET	2000-01-01 00:00:00	\N	11020	00	\N	\N	\N	\N	\N	\N	\N	\N	1	\N	2
185	11030-00	Accounts Receivable - Franchisor-HQ	ASSET	2000-01-01 00:00:00	\N	11030	00	\N	\N	\N	\N	\N	\N	\N	\N	1	\N	2
186	11040-00	Accounts Receivable - Affiliates-HQ	ASSET	2000-01-01 00:00:00	\N	11040	00	\N	\N	\N	\N	\N	\N	\N	\N	1	\N	2
187	11050-00	Accounts Receivable - Other-HQ	ASSET	2000-01-01 00:00:00	\N	11050	00	\N	\N	\N	\N	\N	\N	\N	\N	1	\N	2
188	13010-00	Finished Goods-HQ	ASSET	2000-01-01 00:00:00	\N	13010	00	\N	\N	\N	\N	\N	\N	\N	\N	1	\N	2
189	13020-00	Semi-finished-HQ	ASSET	2000-01-01 00:00:00	\N	13020	00	\N	\N	\N	\N	\N	\N	\N	\N	1	\N	2
190	13030-00	Raw Materials-HQ	ASSET	2000-01-01 00:00:00	\N	13030	00	\N	\N	\N	\N	\N	\N	\N	\N	1	\N	2
191	13040-00	Beverages-HQ	ASSET	2000-01-01 00:00:00	\N	13040	00	\N	\N	\N	\N	\N	\N	\N	\N	1	\N	2
192	13050-00	Alcoholic Beverages-HQ	ASSET	2000-01-01 00:00:00	\N	13050	00	\N	\N	\N	\N	\N	\N	\N	\N	1	\N	2
193	13090-00	Inventory in Transit-HQ	ASSET	2000-01-01 00:00:00	\N	13090	00	\N	\N	\N	\N	\N	\N	\N	\N	1	\N	2
194	13110-00	Office Supplies-HQ	ASSET	2000-01-01 00:00:00	\N	13110	00	\N	\N	\N	\N	\N	\N	\N	\N	1	\N	2
195	13120-00	Store Supplies-HQ	ASSET	2000-01-01 00:00:00	\N	13120	00	\N	\N	\N	\N	\N	\N	\N	\N	1	\N	2
196	13130-00	Cleaning Supplies-HQ	ASSET	2000-01-01 00:00:00	\N	13130	00	\N	\N	\N	\N	\N	\N	\N	\N	1	\N	2
197	16110-00	Adv to Officers & Emp-HQ	ASSET	2000-01-01 00:00:00	\N	16110	00	\N	\N	\N	\N	\N	\N	\N	\N	1	\N	2
198	16210-00	WTax Receivables-HQ	ASSET	2000-01-01 00:00:00	\N	16210	00	\N	\N	\N	\N	\N	\N	\N	\N	1	\N	2
199	16310-00	Other Receivables-HQ	ASSET	2000-01-01 00:00:00	\N	16310	00	\N	\N	\N	\N	\N	\N	\N	\N	1	\N	2
200	16410-00	Input Tax-HQ	ASSET	2000-01-01 00:00:00	\N	16410	00	\N	\N	\N	\N	\N	\N	\N	\N	1	\N	2
201	16510-00	Prepaid Expenses-HQ	ASSET	2000-01-01 00:00:00	\N	16510	00	\N	\N	\N	\N	\N	\N	\N	\N	1	\N	2
202	17000-00	Land-HQ	ASSET	2000-01-01 00:00:00	\N	17000	00	\N	\N	\N	\N	\N	\N	\N	\N	1	\N	2
203	17010-00	Building-HQ	ASSET	2000-01-01 00:00:00	\N	17010	00	\N	\N	\N	\N	\N	\N	\N	\N	1	\N	2
204	17011-00	Accum Depn - Building-HQ	ASSET	2000-01-01 00:00:00	\N	17011	00	\N	\N	\N	\N	\N	\N	\N	\N	1	\N	2
205	17110-00	Leasehold Improvements-HQ	ASSET	2000-01-01 00:00:00	\N	17110	00	\N	\N	\N	\N	\N	\N	\N	\N	1	\N	2
206	17111-00	Accum Depn - LI-HQ	ASSET	2000-01-01 00:00:00	\N	17111	00	\N	\N	\N	\N	\N	\N	\N	\N	1	\N	2
207	17120-00	Furnitures & Fixtures-HQ	ASSET	2000-01-01 00:00:00	\N	17120	00	\N	\N	\N	\N	\N	\N	\N	\N	1	\N	2
208	17121-00	Accum Depn - F&F-HQ	ASSET	2000-01-01 00:00:00	\N	17121	00	\N	\N	\N	\N	\N	\N	\N	\N	1	\N	2
209	17130-00	Office Equipment-HQ	ASSET	2000-01-01 00:00:00	\N	17130	00	\N	\N	\N	\N	\N	\N	\N	\N	1	\N	2
210	17131-00	Accum Depn - Office Equip-HQ	ASSET	2000-01-01 00:00:00	\N	17131	00	\N	\N	\N	\N	\N	\N	\N	\N	1	\N	2
211	17140-00	Communication Equipment-HQ	ASSET	2000-01-01 00:00:00	\N	17140	00	\N	\N	\N	\N	\N	\N	\N	\N	1	\N	2
212	17141-00	Accum Depn - Comm Equipt-HQ	ASSET	2000-01-01 00:00:00	\N	17141	00	\N	\N	\N	\N	\N	\N	\N	\N	1	\N	2
213	17510-00	Operating Equipment-HQ	ASSET	2000-01-01 00:00:00	\N	17510	00	\N	\N	\N	\N	\N	\N	\N	\N	1	\N	2
214	17511-00	Accum Depn -Operating Equip-HQ	ASSET	2000-01-01 00:00:00	\N	17511	00	\N	\N	\N	\N	\N	\N	\N	\N	1	\N	2
215	17520-00	Store Equipment-HQ	ASSET	2000-01-01 00:00:00	\N	17520	00	\N	\N	\N	\N	\N	\N	\N	\N	1	\N	2
216	17521-00	Accum Depn - Store Equip-HQ	ASSET	2000-01-01 00:00:00	\N	17521	00	\N	\N	\N	\N	\N	\N	\N	\N	1	\N	2
217	17530-00	Audio & Video Equipment-HQ	ASSET	2000-01-01 00:00:00	\N	17530	00	\N	\N	\N	\N	\N	\N	\N	\N	1	\N	2
218	17531-00	Accum Depn - A&V Equipt-HQ	ASSET	2000-01-01 00:00:00	\N	17531	00	\N	\N	\N	\N	\N	\N	\N	\N	1	\N	2
219	17540-00	Tools & Equip-HQ	ASSET	2000-01-01 00:00:00	\N	17540	00	\N	\N	\N	\N	\N	\N	\N	\N	1	\N	2
220	17541-00	Accum Depn -Tools & Equip-HQ	ASSET	2000-01-01 00:00:00	\N	17541	00	\N	\N	\N	\N	\N	\N	\N	\N	1	\N	2
221	17810-00	China, Glass, Utensils & Others-HQ	ASSET	2000-01-01 00:00:00	\N	17810	00	\N	\N	\N	\N	\N	\N	\N	\N	1	\N	2
222	17811-00	Accum Depn - China, Glass, Utensils & Others-HQ	ASSET	2000-01-01 00:00:00	\N	17811	00	\N	\N	\N	\N	\N	\N	\N	\N	1	\N	2
223	17820-00	Linens and Towels-HQ	ASSET	2000-01-01 00:00:00	\N	17820	00	\N	\N	\N	\N	\N	\N	\N	\N	1	\N	2
224	17821-00	Accum Depn -Linens and Towels-HQ	ASSET	2000-01-01 00:00:00	\N	17821	00	\N	\N	\N	\N	\N	\N	\N	\N	1	\N	2
225	17910-00	Other Fixed Assets-HQ	ASSET	2000-01-01 00:00:00	\N	17910	00	\N	\N	\N	\N	\N	\N	\N	\N	1	\N	2
226	17911-00	Accum Depn -Other Fixed Assets-HQ	ASSET	2000-01-01 00:00:00	\N	17911	00	\N	\N	\N	\N	\N	\N	\N	\N	1	\N	2
227	19010-00	Deposits-HQ	ASSET	2000-01-01 00:00:00	\N	19010	00	\N	\N	\N	\N	\N	\N	\N	\N	1	\N	2
228	20110-00	Accounts Payable- Trade-HQ	LIABILITY	2000-01-01 00:00:00	\N	20110	00	\N	\N	\N	\N	\N	\N	\N	\N	1	\N	2
229	20220-00	Accrued Expenses-HQ	LIABILITY	2000-01-01 00:00:00	\N	20220	00	\N	\N	\N	\N	\N	\N	\N	\N	1	\N	2
230	21010-00	Withholding Tax - Compensation-HQ	LIABILITY	2000-01-01 00:00:00	\N	21010	00	\N	\N	\N	\N	\N	\N	\N	\N	1	\N	2
231	21020-00	Withholding Tax - Expanded-HQ	LIABILITY	2000-01-01 00:00:00	\N	21020	00	\N	\N	\N	\N	\N	\N	\N	\N	1	\N	2
232	21030-00	Income Tax Payable-HQ	LIABILITY	2000-01-01 00:00:00	\N	21030	00	\N	\N	\N	\N	\N	\N	\N	\N	1	\N	2
233	21040-00	Output VAT-HQ	LIABILITY	2000-01-01 00:00:00	\N	21040	00	\N	\N	\N	\N	\N	\N	\N	\N	1	\N	2
234	21050-00	Service Charges Payable-HQ	LIABILITY	2000-01-01 00:00:00	\N	21050	00	\N	\N	\N	\N	\N	\N	\N	\N	1	\N	2
235	21060-00	SSS Premium Payable-HQ	LIABILITY	2000-01-01 00:00:00	\N	21060	00	\N	\N	\N	\N	\N	\N	\N	\N	1	\N	2
236	21070-00	SSS Loans Payable-HQ	LIABILITY	2000-01-01 00:00:00	\N	21070	00	\N	\N	\N	\N	\N	\N	\N	\N	1	\N	2
237	21080-00	HDMF Contribution Payable-HQ	LIABILITY	2000-01-01 00:00:00	\N	21080	00	\N	\N	\N	\N	\N	\N	\N	\N	1	\N	2
238	21090-00	HDMF Loans Payable-HQ	LIABILITY	2000-01-01 00:00:00	\N	21090	00	\N	\N	\N	\N	\N	\N	\N	\N	1	\N	2
239	21100-00	Philhealth Contribution Payable-HQ	LIABILITY	2000-01-01 00:00:00	\N	21100	00	\N	\N	\N	\N	\N	\N	\N	\N	1	\N	2
240	29010-00	Loans Payable-HQ	LIABILITY	2000-01-01 00:00:00	\N	29010	00	\N	\N	\N	\N	\N	\N	\N	\N	1	\N	2
241	29020-00	Advances From Affiliates-HQ	LIABILITY	2000-01-01 00:00:00	\N	29020	00	\N	\N	\N	\N	\N	\N	\N	\N	1	\N	2
242	29030-00	Advances From Stockholders-HQ	LIABILITY	2000-01-01 00:00:00	\N	29030	00	\N	\N	\N	\N	\N	\N	\N	\N	1	\N	2
243	30000-00	Capital Stock-HQ	OWNERS EQUITY	2000-01-01 00:00:00	\N	30000	00	\N	\N	\N	\N	\N	\N	\N	\N	1	\N	2
244	40010-00	Sales-HQ	REVENUE	2000-01-01 00:00:00	\N	40010	00	\N	\N	\N	\N	\N	\N	\N	\N	1	\N	2
245	40020-00	Sales Discount-HQ	REVENUE	2000-01-01 00:00:00	\N	40020	00	\N	\N	\N	\N	\N	\N	\N	\N	1	\N	2
246	50010-00	Direct cost-HQ	EXPENSE	2000-01-01 00:00:00	\N	50010	00	\N	\N	\N	\N	\N	\N	\N	\N	1	\N	2
247	50020-00	Other cost-HQ	EXPENSE	2000-01-01 00:00:00	\N	50020	00	\N	\N	\N	\N	\N	\N	\N	\N	1	\N	2
248	60010-00	Salaries & Wages-HQ	EXPENSE	2000-01-01 00:00:00	\N	60010	00	\N	\N	\N	\N	\N	\N	\N	\N	1	\N	2
249	60030-00	13th-month Pay-HQ	EXPENSE	2000-01-01 00:00:00	\N	60030	00	\N	\N	\N	\N	\N	\N	\N	\N	1	\N	2
250	60040-00	Bonus & Incentives-HQ	EXPENSE	2000-01-01 00:00:00	\N	60040	00	\N	\N	\N	\N	\N	\N	\N	\N	1	\N	2
251	60050-00	SSS/PH/HDMF Employers Contribution-HQ	EXPENSE	2000-01-01 00:00:00	\N	60050	00	\N	\N	\N	\N	\N	\N	\N	\N	1	\N	2
252	60060-00	SL/VL/Other Leaves-HQ	EXPENSE	2000-01-01 00:00:00	\N	60060	00	\N	\N	\N	\N	\N	\N	\N	\N	1	\N	2
253	60070-00	Employees Meal-HQ	EXPENSE	2000-01-01 00:00:00	\N	60070	00	\N	\N	\N	\N	\N	\N	\N	\N	1	\N	2
254	60080-00	Trainees allowance-HQ	EXPENSE	2000-01-01 00:00:00	\N	60080	00	\N	\N	\N	\N	\N	\N	\N	\N	1	\N	2
255	60910-00	Other Employee Benefits-HQ	EXPENSE	2000-01-01 00:00:00	\N	60910	00	\N	\N	\N	\N	\N	\N	\N	\N	1	\N	2
256	62110-00	Rent Expense-HQ	EXPENSE	2000-01-01 00:00:00	\N	62110	00	\N	\N	\N	\N	\N	\N	\N	\N	1	\N	2
257	62120-00	Property Insurance-HQ	EXPENSE	2000-01-01 00:00:00	\N	62120	00	\N	\N	\N	\N	\N	\N	\N	\N	1	\N	2
258	62210-00	Telephone-HQ	EXPENSE	2000-01-01 00:00:00	\N	62210	00	\N	\N	\N	\N	\N	\N	\N	\N	1	\N	2
259	62220-00	Light and Power-HQ	EXPENSE	2000-01-01 00:00:00	\N	62220	00	\N	\N	\N	\N	\N	\N	\N	\N	1	\N	2
260	62230-00	Water Consumption-HQ	EXPENSE	2000-01-01 00:00:00	\N	62230	00	\N	\N	\N	\N	\N	\N	\N	\N	1	\N	2
261	62240-00	Gas & Other Fuel-HQ	EXPENSE	2000-01-01 00:00:00	\N	62240	00	\N	\N	\N	\N	\N	\N	\N	\N	1	\N	2
262	62310-00	Security Services-HQ	EXPENSE	2000-01-01 00:00:00	\N	62310	00	\N	\N	\N	\N	\N	\N	\N	\N	1	\N	2
263	62320-00	Janitorial-HQ	EXPENSE	2000-01-01 00:00:00	\N	62320	00	\N	\N	\N	\N	\N	\N	\N	\N	1	\N	2
264	62410-00	Cleaning Supplies Used-HQ	EXPENSE	2000-01-01 00:00:00	\N	62410	00	\N	\N	\N	\N	\N	\N	\N	\N	1	\N	2
265	62420-00	Laundry & Dry Cleaning-HQ	EXPENSE	2000-01-01 00:00:00	\N	62420	00	\N	\N	\N	\N	\N	\N	\N	\N	1	\N	2
266	62430-00	Store Supplies Used-HQ	EXPENSE	2000-01-01 00:00:00	\N	62430	00	\N	\N	\N	\N	\N	\N	\N	\N	1	\N	2
267	62510-00	Flowers & decoration-HQ	EXPENSE	2000-01-01 00:00:00	\N	62510	00	\N	\N	\N	\N	\N	\N	\N	\N	1	\N	2
268	63110-00	Depn-Building-HQ	EXPENSE	2000-01-01 00:00:00	\N	63110	00	\N	\N	\N	\N	\N	\N	\N	\N	1	\N	2
269	63120-00	Depn-Lease Improvements-HQ	EXPENSE	2000-01-01 00:00:00	\N	63120	00	\N	\N	\N	\N	\N	\N	\N	\N	1	\N	2
270	63130-00	Depn-F&F-HQ	EXPENSE	2000-01-01 00:00:00	\N	63130	00	\N	\N	\N	\N	\N	\N	\N	\N	1	\N	2
271	63140-00	Depn-Office Equip-HQ	EXPENSE	2000-01-01 00:00:00	\N	63140	00	\N	\N	\N	\N	\N	\N	\N	\N	1	\N	2
272	63150-00	Depn-Comm Equip-HQ	EXPENSE	2000-01-01 00:00:00	\N	63150	00	\N	\N	\N	\N	\N	\N	\N	\N	1	\N	2
273	63210-00	Depn- Operating Equip-HQ	EXPENSE	2000-01-01 00:00:00	\N	63210	00	\N	\N	\N	\N	\N	\N	\N	\N	1	\N	2
274	63220-00	Depn-Store Equip-HQ	EXPENSE	2000-01-01 00:00:00	\N	63220	00	\N	\N	\N	\N	\N	\N	\N	\N	1	\N	2
275	63230-00	Depn-A&V Equip-HQ	EXPENSE	2000-01-01 00:00:00	\N	63230	00	\N	\N	\N	\N	\N	\N	\N	\N	1	\N	2
276	63240-00	Depn-Tools & Equip-HQ	EXPENSE	2000-01-01 00:00:00	\N	63240	00	\N	\N	\N	\N	\N	\N	\N	\N	1	\N	2
277	63310-00	Depn- China, Glass, Utensils & Others-HQ	EXPENSE	2000-01-01 00:00:00	\N	63310	00	\N	\N	\N	\N	\N	\N	\N	\N	1	\N	2
278	63320-00	Depn-Linens & Towels-HQ	EXPENSE	2000-01-01 00:00:00	\N	63320	00	\N	\N	\N	\N	\N	\N	\N	\N	1	\N	2
279	63810-00	Depn-Other Fixed Assets-HQ	EXPENSE	2000-01-01 00:00:00	\N	63810	00	\N	\N	\N	\N	\N	\N	\N	\N	1	\N	2
280	63910-00	Repairs & Maintenance-HQ	EXPENSE	2000-01-01 00:00:00	\N	63910	00	\N	\N	\N	\N	\N	\N	\N	\N	1	\N	2
281	64110-00	Other Utility Expenses-HQ	EXPENSE	2000-01-01 00:00:00	\N	64110	00	\N	\N	\N	\N	\N	\N	\N	\N	1	\N	2
282	64210-00	Other Premises Expenses-HQ	EXPENSE	2000-01-01 00:00:00	\N	64210	00	\N	\N	\N	\N	\N	\N	\N	\N	1	\N	2
283	65010-00	Delivery Expenses-HQ	EXPENSE	2000-01-01 00:00:00	\N	65010	00	\N	\N	\N	\N	\N	\N	\N	\N	1	\N	2
284	65020-00	Sales Commission & Incentives-HQ	EXPENSE	2000-01-01 00:00:00	\N	65020	00	\N	\N	\N	\N	\N	\N	\N	\N	1	\N	2
285	65110-00	Advertisement & Promotions-HQ	EXPENSE	2000-01-01 00:00:00	\N	65110	00	\N	\N	\N	\N	\N	\N	\N	\N	1	\N	2
286	65120-00	Public Relations Expense-HQ	EXPENSE	2000-01-01 00:00:00	\N	65120	00	\N	\N	\N	\N	\N	\N	\N	\N	1	\N	2
287	65130-00	Entertainment & Representation-HQ	EXPENSE	2000-01-01 00:00:00	\N	65130	00	\N	\N	\N	\N	\N	\N	\N	\N	1	\N	2
288	65140-00	Professional Fees-HQ	EXPENSE	2000-01-01 00:00:00	\N	65140	00	\N	\N	\N	\N	\N	\N	\N	\N	1	\N	2
289	65150-00	Audio & Video System Rentals-HQ	EXPENSE	2000-01-01 00:00:00	\N	65150	00	\N	\N	\N	\N	\N	\N	\N	\N	1	\N	2
290	65910-00	Other selling & marketing expenses-HQ	EXPENSE	2000-01-01 00:00:00	\N	65910	00	\N	\N	\N	\N	\N	\N	\N	\N	1	\N	2
291	66010-00	Franchise Fees-HQ	EXPENSE	2000-01-01 00:00:00	\N	66010	00	\N	\N	\N	\N	\N	\N	\N	\N	1	\N	2
292	66020-00	Transportation and Travel-HQ	EXPENSE	2000-01-01 00:00:00	\N	66020	00	\N	\N	\N	\N	\N	\N	\N	\N	1	\N	2
293	66030-00	Parking-HQ	EXPENSE	2000-01-01 00:00:00	\N	66030	00	\N	\N	\N	\N	\N	\N	\N	\N	1	\N	2
294	66040-00	Office Supplies-HQ	EXPENSE	2000-01-01 00:00:00	\N	66040	00	\N	\N	\N	\N	\N	\N	\N	\N	1	\N	2
295	66050-00	Taxes and Licenses-HQ	EXPENSE	2000-01-01 00:00:00	\N	66050	00	\N	\N	\N	\N	\N	\N	\N	\N	1	\N	2
296	66060-00	Accounting Services-HQ	EXPENSE	2000-01-01 00:00:00	\N	66060	00	\N	\N	\N	\N	\N	\N	\N	\N	1	\N	2
297	66070-00	Associations & Membership dues-HQ	EXPENSE	2000-01-01 00:00:00	\N	66070	00	\N	\N	\N	\N	\N	\N	\N	\N	1	\N	2
298	66210-00	Provn for inventory losses-HQ	EXPENSE	2000-01-01 00:00:00	\N	66210	00	\N	\N	\N	\N	\N	\N	\N	\N	1	\N	2
299	66220-00	Provn for doubtful accounts-HQ	EXPENSE	2000-01-01 00:00:00	\N	66220	00	\N	\N	\N	\N	\N	\N	\N	\N	1	\N	2
300	66910-00	Other general admin expenses-HQ	EXPENSE	2000-01-01 00:00:00	\N	66910	00	\N	\N	\N	\N	\N	\N	\N	\N	1	\N	2
301	80010-00	Interest on bank deposits-HQ	EXPENSE	2000-01-01 00:00:00	\N	80010	00	\N	\N	\N	\N	\N	\N	\N	\N	1	\N	2
302	80020-00	Bank Charges-HQ	EXPENSE	2000-01-01 00:00:00	\N	80020	00	\N	\N	\N	\N	\N	\N	\N	\N	1	\N	2
303	80030-00	Cashier's Overage-HQ	REVENUE	2000-01-01 00:00:00	\N	80030	00	\N	\N	\N	\N	\N	\N	\N	\N	1	\N	2
304	80040-00	Miscellaneous Income-HQ	REVENUE	2000-01-01 00:00:00	\N	80040	00	\N	\N	\N	\N	\N	\N	\N	\N	1	\N	2
305	80050-00	Miscellaneous Expense-HQ	EXPENSE	2000-01-01 00:00:00	\N	80050	00	\N	\N	\N	\N	\N	\N	\N	\N	1	\N	2
306	90000-00	Provision for Income tax-HQ	EXPENSE	2000-01-01 00:00:00	\N	90000	00	\N	\N	\N	\N	\N	\N	\N	\N	1	\N	2
307	13010-01	Finished Goods-Fresh Frozen	ASSET	2000-01-01 00:00:00	\N	13010	01	\N	\N	\N	\N	\N	\N	\N	\N	1	\N	2
308	13010-02	Finished Goods-Inst Packs	ASSET	2000-01-01 00:00:00	\N	13010	02	\N	\N	\N	\N	\N	\N	\N	\N	1	\N	2
309	13010-03	Finished Goods-Retail Packs	ASSET	2000-01-01 00:00:00	\N	13010	03	\N	\N	\N	\N	\N	\N	\N	\N	1	\N	2
310	13020-01	Semi-finished-Fresh Frozen	ASSET	2000-01-01 00:00:00	\N	13020	01	\N	\N	\N	\N	\N	\N	\N	\N	1	\N	2
311	13020-02	Semi-finished-Inst Packs	ASSET	2000-01-01 00:00:00	\N	13020	02	\N	\N	\N	\N	\N	\N	\N	\N	1	\N	2
312	13020-03	Semi-finished-Retail Packs	ASSET	2000-01-01 00:00:00	\N	13020	03	\N	\N	\N	\N	\N	\N	\N	\N	1	\N	2
313	13030-01	Raw Materials-Fresh Frozen	ASSET	2000-01-01 00:00:00	\N	13030	01	\N	\N	\N	\N	\N	\N	\N	\N	1	\N	2
314	13030-02	Raw Materials-Inst Packs	ASSET	2000-01-01 00:00:00	\N	13030	02	\N	\N	\N	\N	\N	\N	\N	\N	1	\N	2
315	13030-03	Raw Materials-Retail Packs	ASSET	2000-01-01 00:00:00	\N	13030	03	\N	\N	\N	\N	\N	\N	\N	\N	1	\N	2
316	40010-01	Sales-Fresh Frozen	REVENUE	2000-01-01 00:00:00	\N	40010	01	\N	\N	\N	\N	\N	\N	\N	\N	1	\N	2
317	40010-02	Sales-Inst Packs	REVENUE	2000-01-01 00:00:00	\N	40010	02	\N	\N	\N	\N	\N	\N	\N	\N	1	\N	2
318	40010-03	Sales-Retail Packs	REVENUE	2000-01-01 00:00:00	\N	40010	03	\N	\N	\N	\N	\N	\N	\N	\N	1	\N	2
319	40020-01	Sales Discount-Fresh Frozen	REVENUE	2000-01-01 00:00:00	\N	40020	01	\N	\N	\N	\N	\N	\N	\N	\N	1	\N	2
320	40020-02	Sales Discount-Inst Packs	REVENUE	2000-01-01 00:00:00	\N	40020	02	\N	\N	\N	\N	\N	\N	\N	\N	1	\N	2
321	40020-03	Sales Discount-Retail Packs	REVENUE	2000-01-01 00:00:00	\N	40020	03	\N	\N	\N	\N	\N	\N	\N	\N	1	\N	2
322	50010-01	Direct cost-Fresh Frozen	EXPENSE	2000-01-01 00:00:00	\N	50010	01	\N	\N	\N	\N	\N	\N	\N	\N	1	\N	2
323	50010-02	Direct cost-Inst Packs	EXPENSE	2000-01-01 00:00:00	\N	50010	02	\N	\N	\N	\N	\N	\N	\N	\N	1	\N	2
324	50010-03	Direct cost-Retail Packs	EXPENSE	2000-01-01 00:00:00	\N	50010	03	\N	\N	\N	\N	\N	\N	\N	\N	1	\N	2
325	50020-01	Other cost-Fresh Frozen	EXPENSE	2000-01-01 00:00:00	\N	50020	01	\N	\N	\N	\N	\N	\N	\N	\N	1	\N	2
326	50020-02	Other cost-Inst Packs	EXPENSE	2000-01-01 00:00:00	\N	50020	02	\N	\N	\N	\N	\N	\N	\N	\N	1	\N	2
327	50020-03	Other cost-Retail Packs	EXPENSE	2000-01-01 00:00:00	\N	50020	03	\N	\N	\N	\N	\N	\N	\N	\N	1	\N	2
