11	68	0	-68	1	2481	44	2
12	45	0	-45	1	2482	44	2
13	24	0	-24	1	2483	44	2
14	108	0	-108	1	2484	44	2
15	75	0	-75	1	2485	44	2
16	45	0	-45	1	2486	44	2
17	25	0	-25	1	2487	44	2
18	78	0	-78	1	2488	44	2
19	87	0	-87	1	2489	44	2
20	47	0	-47	1	2490	44	2
21	48	0	-48	2	2491	44	2
22	27	0	-27	2	2492	44	2
23	88	0	-88	2	2493	44	2
24	177	0	-177	3	2425	44	2
25	655	0	-655	3	2426	44	2
26	344	0	-344	3	2427	44	2
27	122	0	-122	3	2428	44	2
28	177	0	-177	3	2429	44	2
29	224	0	-224	3	2430	44	2
30	156	0	-156	3	2431	44	2
31	454	0	-454	3	2432	44	2
32	233	0	-233	3	2433	44	2
33	122	0	-122	3	2434	44	2
34	1122	0	-1122	4	2463	46	2
35	4555	0	-4555	4	2464	46	2
36	143	0	-143	5	2494	44	2
37	50	0	-50	6	2465	44	2
38	47	0	-47	6	2466	44	2
39	122	0	-122	6	2467	44	2
40	54	0	-54	6	2468	44	2
41	34	0	-34	6	2469	44	2
42	22	0	-22	6	2470	44	2
43	11	0	-11	6	2471	44	2
44	24	0	-24	6	2472	46	2
45	255	0	-255	6	2473	44	2
46	25	0	-25	6	2474	46	2
47	123	0	-123	6	2475	46	2
48	43	0	-43	6	2476	46	2
49	23	0	-23	6	2477	46	2
50	66	0	-66	6	2478	44	2
51	12	0	-12	6	2479	46	2
52	11	0	-11	6	2480	46	2
